-0.250 
-13.979 
-35.080 
-22.402 
7.670 
19.681 
29.035 
-0.855 
-45.694 
-48.459 
-21.875 
26.476 
11.681 
50.392 
-2.558 
-39.100 
-40.645 
-12.976 
7.716 
41.295 
31.395 
-1.971 
-20.651 
-23.269 
-18.562 
15.496 
24.822 
31.695 
-3.093 
-25.031 
-29.985 
-14.534 
15.081 
31.970 
28.064 
-2.992 
-44.725 
-23.023 
-4.839 
20.923 
21.044 
22.483 
-1.371 
-29.835 
-9.373 
-20.099 
6.436 
51.314 
14.561 
-6.088 
-20.697 
-9.988 
-9.117 
17.415 
52.472 
3.202 
-4.429 
-38.182 
-29.607 
-5.671 
11.636 
45.412 
39.920 
-8.583 
-37.631 
-9.195 
-9.179 
15.037 
33.677 
7.108 
-5.961 
-18.807 
-39.718 
-2.325 
33.191 
18.336 
20.921 
-3.320 
-47.867 
-50.515 
-7.225 
36.363 
31.219 
24.816 
-8.575 
-28.434 
-42.344 
-4.197 
14.153 
24.787 
22.946 
-2.502 
-16.400 
-55.158 
-6.189 
16.733 
36.228 
25.706 
-8.985 
-16.206 
-32.717 
-6.834 
24.955 
26.561 
35.558 
-16.165 
-59.320 
-20.436 
-7.727 
30.425 
41.903 
20.768 
-15.130 
-35.293 
-20.245 
-6.950 
11.299 
34.723 
23.500 
-2.027 
-40.534 
-37.679 
-2.572 
17.159 
33.963 
14.785 
-5.884 
-17.343 
-14.945 
-4.973 
37.954 
36.398 
19.395 
-13.635 
-10.706 
-22.057 
-5.701 
41.173 
48.046 
10.989 
-5.752 
-54.200 
-34.095 
-1.834 
16.810 
28.804 
11.578 
-15.368 
-27.549 
-26.007 
-2.581 
26.288 
3.991 
23.234 
-10.696 
-55.824 
-33.304 
-2.903 
43.796 
23.008 
14.466 
-10.028 
-42.311 
-25.960 
-1.525 
28.211 
57.711 
20.948 
-10.138 
-53.245 
-40.457 
-0.776 
30.835 
37.206 
17.836 
-20.194 
-31.211 
-23.602 
-0.439 
6.168 
24.160 
6.237 
-12.161 
-47.402 
-22.168 
0.214 
41.901 
32.047 
12.844 
-11.125 
-56.340 
-34.980 
0.695 
38.164 
57.833 
18.640 
-6.796 
-47.384 
-30.423 
0.744 
11.074 
36.223 
10.190 
-18.449 
-23.536 
-37.652 
3.005 
17.093 
42.541 
19.093 
-14.908 
-35.276 
-23.482 
4.556 
11.351 
6.900 
8.553 
-26.029 
-42.454 
-41.070 
5.397 
23.520 
64.066 
11.980 
-22.417 
-56.760 
-8.830 
2.087 
13.440 
32.721 
7.388 
-17.385 
-20.545 
-36.690 
4.254 
8.051 
29.166 
3.965 
-17.643 
-42.328 
-21.665 
6.349 
52.550 
59.842 
8.531 
-33.266 
-1.321 
-13.858 
3.064 
38.013 
39.635 
6.093 
-22.315 
-39.915 
-4.931 
1.211 
38.374 
34.428 
7.137 
-15.527 
-56.744 
-23.410 
4.101 
21.153 
47.788 
4.708 
-21.161 
-14.914 
-22.249 
2.423 
50.980 
28.722 
11.912 
-18.700 
-26.359 
-21.111 
7.880 
41.332 
17.941 
7.152 
-12.890 
-46.730 
-26.435 
14.630 
30.200 
44.978 
5.469 
-16.200 
-36.696 
-36.512 
8.555 
53.851 
8.210 
5.888 
-20.106 
-28.452 
-23.565 
13.107 
39.619 
36.361 
0.658 
-8.297 
-38.757 
-25.371 
7.033 
44.239 
22.476 
0.459 
-3.727 
-29.797 
-33.451 
19.582 
37.793 
13.728 
5.376 
-28.060 
-33.296 
-14.606 
15.419 
15.670 
30.404 
5.816 
-42.430 
-28.970 
-14.384 
18.455 
54.257 
27.380 
3.502 
-9.141 
-22.533 
-26.799 
15.482 
41.880 
51.126 
2.843 
-42.232 
-18.944 
-9.578 
10.236 
30.045 
22.078 
0.559 
-14.552 
-9.744 
-23.499 
23.319 
41.604 
19.502 
1.203 
-33.392 
-43.353 
-19.656 
12.599 
36.231 
13.874 
-0.124 
-19.423 
-16.659 
-2.904 
23.782 
21.380 
19.253 
-0.689 
-39.132 
-34.326 
-17.857 
7.461 
35.820 
33.808 
-0.916 
-26.521 
-18.599 
-4.594 
7.894 
11.698 
18.964 
-1.225 
-16.160 
-31.952 
-9.151 
13.486 
58.620 
35.994 
-2.755 
-7.279 
-31.450 
-7.849 
7.899 
48.535 
6.832 
-3.050 
-31.375 
-33.671 
-10.578 
17.274 
52.557 
25.036 
-1.866 
-31.437 
-25.343 
-15.942 
8.956 
28.521 
40.336 
-6.271 
-50.889 
-28.226 
-13.794 
24.088 
44.946 
32.897 
-5.179 
-29.060 
-25.369 
-3.106 
13.835 
58.920 
32.786 
-6.415 
-3.037 
-38.508 
-13.132 
23.768 
23.306 
24.963 
-6.909 
-21.203 
-19.079 
-1.719 
25.413 
29.403 
22.590 
-5.221 
-20.456 
-3.201 
-2.915 
28.596 
32.998 
34.360 
-11.701 
-23.190 
-11.963 
-10.723 
25.769 
22.281 
34.091 
-7.468 
-26.283 
-45.430 
-9.504 
20.987 
38.378 
8.813 
-9.699 
-41.084 
-16.569 
-6.218 
10.027 
21.205 
21.362 
-10.923 
-31.610 
-31.013 
-3.628 
14.905 
56.576 
27.406 
-9.842 
-34.483 
-42.354 
-7.314 
42.563 
43.315 
18.088 
-10.751 
-28.763 
-29.501 
-8.596 
41.213 
13.661 
23.859 
-12.976 
-33.300 
-4.563 
-6.829 
18.771 
41.422 
23.040 
-14.472 
-43.934 
-22.198 
-6.515 
19.367 
26.060 
18.987 
-17.235 
-62.801 
-25.578 
-3.811 
23.804 
41.617 
21.413 
-16.080 
-31.879 
-47.652 
-2.782 
33.839 
37.270 
15.392 
-20.473 
-15.639 
-47.392 
-4.499 
12.444 
27.285 
19.454 
-10.742 
-34.282 
-39.833 
-2.109 
8.615 
2.566 
8.701 
-16.013 
-30.302 
-31.000 
-2.139 
33.837 
32.023 
17.557 
-3.204 
-38.766 
-37.121 
-0.534 
15.522 
31.207 
13.478 
-6.385 
-51.821 
-7.804 
-0.219 
26.969 
31.432 
18.924 
-23.303 
-7.596 
-12.111 
0.952 
33.882 
27.483 
11.617 
-25.591 
-32.898 
-23.899 
1.971 
37.789 
32.187 
11.154 
-1.951 
-30.891 
-25.685 
1.339 
14.633 
43.017 
24.866 
-10.782 
-24.270 
-33.195 
2.413 
20.132 
35.275 
6.470 
-30.285 
-16.895 
-47.704 
3.440 
35.614 
8.921 
4.932 
-8.447 
-40.007 
-19.627 
3.629 
16.978 
38.921 
14.441 
-17.493 
-39.375 
-1.753 
2.095 
30.915 
35.320 
20.620 
-31.153 
-47.636 
-31.008 
3.228 
32.166 
16.418 
7.464 
-35.601 
-21.300 
-31.643 
2.353 
34.052 
37.489 
11.214 
-17.442 
-52.039 
-38.384 
7.780 
49.180 
29.328 
7.526 
-14.254 
-20.982 
-14.178 
10.839 
38.198 
55.517 
14.299 
-16.755 
-63.547 
-35.037 
2.224 
36.295 
9.779 
8.154 
-27.123 
-31.010 
-39.411 
11.749 
31.432 
35.359 
10.772 
-24.761 
-27.787 
-24.838 
12.296 
24.193 
55.718 
5.093 
-19.717 
-61.018 
-13.857 
9.347 
9.274 
39.136 
7.151 
-24.369 
-53.115 
-28.271 
12.643 
25.556 
12.546 
3.404 
-11.100 
-63.050 
-24.341 
6.691 
54.057 
30.341 
5.812 
-28.011 
-22.699 
-23.331 
13.749 
30.605 
41.340 
0.734 
-5.003 
-40.093 
-10.044 
18.006 
28.775 
34.843 
2.218 
-29.528 
-33.269 
-25.088 
8.230 
15.368 
5.733 
4.666 
-19.930 
-58.698 
-21.292 
9.148 
48.574 
25.475 
2.154 
-41.836 
-67.733 
-28.938 
9.974 
18.285 
38.602 
1.779 
-39.824 
-59.786 
-13.381 
16.446 
29.070 
23.117 
1.500 
-19.797 
-52.572 
-15.433 
13.039 
16.037 
21.676 
0.589 
-25.873 
-35.591 
-10.615 
18.257 
58.219 
9.302 
-0.194 
-31.268 
-43.822 
-14.405 
18.787 
40.632 
29.392 
-0.740 
-20.648 
-32.532 
-15.514 
27.769 
57.965 
8.760 
-0.746 
-30.104 
-57.959 
-17.918 
13.225 
23.677 
18.309 
-1.494 
-20.021 
-17.445 
-18.985 
19.401 
53.749 
27.026 
-2.315 
-51.169 
-14.619 
-11.774 
6.206 
23.461 
46.654 
-3.517 
-25.566 
-13.860 
-7.633 
29.672 
13.230 
28.965 
-5.242 
-31.580 
-34.078 
-16.232 
30.344 
6.504 
27.960 
-1.988 
-42.889 
-44.966 
-7.733 
21.620 
48.182 
38.099 
-6.417 
-43.649 
-20.960 
-12.927 
22.605 
36.841 
13.836 
-8.462 
-39.115 
-30.439 
-16.385 
23.189 
46.882 
16.428 
-8.047 
-22.227 
-45.702 
-6.646 
37.252 
31.913 
23.339 
-9.636 
-36.376 
-5.807 
-12.237 
32.966 
36.580 
23.544 
-5.152 
-13.040 
-19.708 
-8.422 
17.622 
26.217 
15.204 
-4.054 
-10.570 
-25.980 
-4.116 
24.330 
60.907 
24.723 
-6.650 
-35.040 
-12.047 
-11.358 
41.439 
27.994 
15.808 
-14.961 
-39.900 
-25.528 
-7.085 
31.482 
35.121 
18.775 
-14.081 
-18.078 
-30.297 
-6.969 
34.751 
38.300 
23.412 
-13.896 
-29.176 
-11.717 
-4.473 
28.825 
24.704 
26.391 
-14.684 
-49.122 
-30.926 
-5.422 
13.187 
31.784 
12.722 
-21.918 
-57.183 
-28.781 
-2.391 
24.066 
26.750 
29.505 
-16.121 
-60.919 
-31.167 
-1.139 
34.018 
53.277 
7.802 
-10.918 
-38.427 
-47.725 
-3.495 
25.683 
17.783 
17.510 
-3.305 
-59.539 
-54.785 
-2.578 
18.647 
13.502 
20.238 
-11.059 
-28.494 
-26.601 
-2.097 
27.589 
29.979 
20.417 
-7.610 
-57.698 
-38.843 
-1.031 
26.359 
31.277 
9.740 
-5.500 
-32.924 
-30.432 
-0.612 
43.720 
41.279 
21.368 
-25.310 
-42.829 
-38.920 
0.017 
41.509 
26.512 
6.345 
-11.860 
-42.289 
-31.787 
0.712 
28.918 
54.424 
17.198 
-18.763 
-34.348 
-26.729 
2.286 
33.060 
12.838 
13.319 
-11.449 
-28.460 
-17.544 
1.940 
50.780 
25.793 
16.071 
-24.420 
-34.197 
-16.485 
2.477 
36.256 
35.538 
16.750 
-14.167 
-47.753 
-33.732 
3.184 
46.587 
32.961 
12.216 
-11.933 
-38.620 
-32.912 
4.816 
17.357 
44.212 
21.509 
-24.659 
-43.675 
-34.825 
1.806 
31.047 
18.827 
4.992 
-16.363 
-66.202 
-17.835 
5.939 
41.290 
12.383 
12.036 
-33.313 
-34.517 
-25.411 
1.995 
41.700 
11.633 
8.504 
-19.913 
-30.977 
-34.320 
0.402 
31.037 
41.359 
12.067 
-12.674 
-58.526 
-17.747 
9.452 
26.857 
54.689 
6.907 
-30.714 
-28.147 
-7.689 
5.327 
37.065 
2.652 
3.073 
-23.330 
-54.257 
-13.923 
1.170 
31.861 
53.137 
11.363 
-30.922 
-38.867 
-22.023 
7.006 
47.483 
31.116 
5.838 
-23.149 
-47.065 
-6.778 
0.515 
30.715 
18.584 
5.645 
-31.711 
-64.877 
-7.031 
12.248 
53.834 
21.509 
5.047 
-32.321 
-29.851 
-8.866 
9.108 
11.443 
33.292 
2.463 
-21.536 
-63.281 
-32.841 
7.923 
46.154 
20.760 
4.228 
-34.518 
-7.359 
-9.555 
16.346 
34.598 
39.806 
5.050 
-13.068 
-16.567 
-9.110 
16.536 
26.634 
39.650 
3.002 
-11.459 
-20.067 
-10.645 
3.420 
47.654 
1.516 
1.331 
-7.403 
-40.835 
-5.116 
22.335 
33.112 
27.363 
1.332 
-23.658 
-41.064 
-16.577 
18.004 
30.162 
43.084 
0.507 
-26.471 
-48.291 
-27.434 
14.286 
29.952 
32.887 
0.398 
-46.251 
-36.237 
-15.027 
17.148 
38.794 
15.673 
-0.310 
-29.476 
-22.522 
-10.102 
13.155 
28.795 
39.687 
-1.022 
-23.321 
-32.128 
-6.816 
19.566 
21.172 
25.533 
-2.308 
-29.684 
-51.985 
-9.922 
16.644 
13.490 
23.540 
-1.232 
-23.042 
-54.476 
-11.811 
16.833 
23.070 
34.480 
-3.245 
-38.699 
-31.999 
-14.783 
15.541 
2.938 
33.400 
-4.245 
-43.936 
-43.703 
-9.825 
14.513 
60.820 
18.837 
-4.119 
-26.273 
-7.674 
-6.562 
7.628 
25.720 
5.502 
-6.713 
-35.731 
-5.615 
-11.014 
28.767 
45.006 
8.345 
-7.809 
-28.992 
-39.891 
-17.367 
25.677 
40.428 
6.498 
-6.834 
-39.893 
-36.968 
-9.265 
25.709 
32.255 
28.585 
-6.904 
-36.493 
-32.102 
-10.485 
22.300 
25.845 
26.619 
-3.517 
-16.153 
-29.903 
-8.514 
25.655 
21.207 
20.622 
-5.242 
-12.764 
-26.108 
-5.672 
18.672 
54.116 
29.720 
-5.562 
-22.900 
-37.108 
-10.207 
22.042 
27.643 
16.247 
-15.702 
-39.718 
-47.902 
-6.093 
20.421 
35.494 
19.896 
-9.161 
-24.245 
-20.081 
-3.192 
41.452 
37.966 
19.208 
-4.941 
-39.983 
-43.898 
-6.909 
26.566 
61.115 
37.103 
-16.015 
-25.589 
-22.473 
-3.570 
11.320 
49.628 
29.455 
-11.202 
-39.853 
-40.570 
-8.100 
35.845 
28.915 
31.151 
-22.130 
-12.070 
-34.094 
-5.290 
15.055 
45.185 
24.510 
-11.120 
-29.807 
-24.153 
-3.037 
15.054 
25.248 
19.099 
-16.291 
-33.046 
-13.244 
-2.212 
32.970 
7.521 
16.590 
-17.147 
-55.884 
-44.594 
-0.770 
22.516 
29.333 
17.594 
-11.663 
-25.098 
-21.570 
-1.798 
15.794 
30.290 
17.178 
-10.807 
-41.508 
-26.126 
-1.014 
30.378 
42.773 
24.059 
-18.983 
-51.780 
-31.668 
-0.300 
26.897 
56.194 
27.490 
-12.095 
-29.612 
-35.932 
0.616 
13.936 
45.896 
19.232 
-14.472 
-25.158 
-24.784 
0.013 
55.807 
56.394 
19.754 
-9.376 
-19.609 
-40.799 
1.169 
21.584 
32.403 
19.356 
-24.504 
-25.316 
-13.468 
0.092 
20.969 
22.660 
15.132 
-4.028 
-10.516 
-26.002 
1.250 
48.954 
60.961 
12.824 
-31.379 
-23.668 
-23.271 
5.607 
26.593 
27.134 
15.529 
-16.258 
-34.739 
-45.504 
1.601 
32.069 
27.637 
13.389 
-6.712 
-11.292 
-42.228 
0.932 
32.719 
6.760 
14.918 
-16.131 
-50.187 
-39.029 
5.510 
22.782 
3.396 
10.338 
-19.011 
-51.672 
-15.228 
6.582 
50.977 
50.433 
6.862 
-22.216 
-67.084 
-14.467 
6.046 
42.888 
30.125 
2.946 
-20.575 
-27.784 
-14.176 
5.656 
35.914 
42.520 
8.357 
-4.673 
-56.404 
-22.594 
7.978 
32.673 
35.738 
7.953 
-17.429 
-27.788 
-14.454 
9.980 
23.506 
25.234 
9.274 
-20.562 
-30.995 
-23.744 
3.891 
7.949 
23.424 
5.547 
-27.104 
-24.900 
-27.360 
0.632 
49.639 
28.203 
5.230 
-15.624 
-45.933 
-30.764 
19.309 
62.636 
31.328 
4.493 
-35.259 
-7.379 
-29.989 
1.839 
32.242 
50.924 
3.930 
-30.665 
-53.985 
-15.306 
18.640 
46.272 
12.180 
2.134 
-17.251 
-24.402 
-0.626 
16.069 
30.272 
54.913 
4.716 
-36.644 
-9.819 
-7.912 
13.663 
20.214 
42.424 
2.401 
-13.370 
-18.632 
-7.331 
12.292 
24.439 
41.624 
0.130 
-46.373 
-40.434 
-19.808 
6.292 
22.495 
12.474 
0.671 
-29.486 
-48.389 
-29.150 
18.447 
54.455 
36.290 
0.739 
-41.188 
-39.468 
-11.006 
13.909 
31.743 
45.098 
-0.231 
-29.514 
-3.738 
-9.081 
16.467 
39.554 
41.419 
-0.654 
-39.246 
-50.624 
-11.594 
9.945 
38.651 
38.632 
-1.361 
-22.299 
-29.995 
-11.308 
6.278 
43.354 
27.535 
-2.211 
-10.402 
-11.265 
-19.412 
23.261 
33.613 
28.170 
-1.016 
-27.560 
-41.348 
-5.797 
17.222 
28.755 
25.888 
-1.919 
-44.530 
-18.644 
-8.708 
25.281 
34.854 
11.063 
-5.675 
-33.315 
-29.376 
-20.721 
17.139 
63.003 
11.881 
-3.671 
-16.662 
-17.417 
-18.000 
7.716 
31.078 
23.335 
-6.361 
-42.333 
-35.703 
-7.199 
5.735 
9.020 
13.886 
-7.374 
-35.318 
-20.846 
-14.923 
23.077 
24.025 
14.816 
-3.535 
-37.541 
-53.023 
-11.263 
27.852 
17.616 
8.191 
-8.551 
-40.741 
-61.794 
-5.868 
28.741 
51.594 
27.545 
-9.463 
-42.704 
-22.336 
-1.096 
15.130 
61.982 
17.291 
-12.275 
-34.057 
-28.599 
-15.237 
15.470 
36.589 
18.892 
-7.405 
-40.182 
-48.157 
-3.434 
9.614 
4.756 
23.622 
-2.867 
-5.812 
-15.126 
-10.853 
22.698 
31.553 
25.374 
-13.529 
-11.459 
-13.733 
-1.332 
15.753 
58.301 
27.008 
-4.544 
-14.196 
-34.719 
-5.645 
12.165 
18.649 
18.134 
-13.342 
-36.357 
-40.517 
-7.844 
20.580 
65.618 
0.334 
-9.267 
-33.898 
-20.323 
-6.948 
30.296 
59.101 
13.572 
-15.016 
-36.813 
-44.468 
-2.409 
36.220 
33.086 
15.391 
-14.474 
-37.706 
-35.343 
-1.854 
40.745 
28.759 
19.041 
-1.304 
-64.273 
-29.638 
-3.254 
39.021 
64.312 
16.033 
-11.800 
-41.888 
-43.791 
-3.062 
6.487 
24.019 
13.336 
-21.164 
-30.677 
-30.914 
-0.481 
12.881 
36.907 
14.022 
-21.395 
-19.005 
-35.603 
-0.908 
31.946 
33.277 
17.914 
-11.688 
-10.713 
-21.451 
-0.076 
47.591 
44.621 
17.566 
-27.481 
-40.859 
-4.925 
0.625 
25.136 
40.964 
18.057 
-2.570 
-31.165 
-30.869 
1.369 
23.156 
6.645 
18.591 
-14.119 
-46.418 
-20.530 
2.400 
39.836 
52.231 
17.945 
-18.978 
-52.912 
-27.568 
2.040 
38.542 
28.410 
8.967 
-18.641 
-23.282 
-24.797 
3.829 
39.894 
37.747 
3.903 
-14.308 
-46.772 
-28.955 
1.402 
37.316 
59.780 
12.190 
-20.483 
-36.544 
-36.690 
1.572 
10.162 
24.548 
7.253 
-4.802 
-45.869 
-13.976 
3.992 
24.811 
37.365 
12.175 
-23.404 
-53.781 
-23.340 
3.630 
4.750 
29.829 
9.198 
-11.494 
-55.621 
-19.590 
8.137 
43.285 
30.921 
2.060 
-13.473 
-63.883 
-31.682 
1.223 
42.093 
27.099 
13.997 
-36.693 
-56.756 
-19.490 
7.073 
28.974 
30.107 
6.332 
-5.828 
-21.352 
-22.840 
11.200 
2.989 
31.130 
7.987 
-30.116 
-50.671 
-1.766 
7.264 
32.395 
12.762 
11.188 
-9.095 
-15.261 
-20.980 
9.667 
23.435 
10.756 
7.802 
-25.182 
-25.606 
-19.867 
17.632 
44.152 
24.665 
6.777 
-18.890 
-45.554 
-21.996 
5.604 
30.112 
18.866 
6.997 
-37.987 
-40.146 
-12.412 
15.035 
52.478 
20.802 
0.923 
-39.678 
-23.008 
-19.150 
11.458 
53.145 
29.328 
3.659 
-34.489 
-13.735 
-25.310 
17.130 
4.169 
38.843 
1.920 
-38.448 
-5.915 
-26.928 
16.648 
49.997 
46.054 
1.959 
-10.550 
-42.270 
-6.544 
12.922 
12.120 
14.609 
2.240 
-26.273 
-25.598 
-19.387 
7.533 
48.091 
18.451 
1.058 
-13.867 
-40.954 
-10.735 
19.920 
54.555 
28.145 
0.542 
-47.506 
-12.837 
-8.481 
10.606 
35.976 
28.041 
-0.262 
-29.399 
-21.842 
-14.599 
6.725 
64.443 
37.034 
-0.536 
-20.991 
-48.108 
-19.504 
19.930 
40.110 
26.153 
-0.628 
-31.340 
-39.950 
-5.900 
18.575 
12.074 
27.900 
-2.136 
-56.511 
-3.685 
-18.412 
20.058 
15.995 
10.043 
-2.534 
-16.185 
-49.460 
-6.607 
28.268 
20.287 
37.141 
-3.566 
-28.614 
-62.443 
-6.692 
3.652 
43.049 
21.197 
-7.601 
-41.922 
-29.306 
-9.454 
27.656 
37.091 
42.660 
-2.916 
-28.333 
-25.767 
-13.145 
26.656 
30.387 
11.826 
-3.095 
-11.355 
-47.280 
-10.974 
18.094 
31.500 
11.844 
-0.362 
-46.363 
-48.945 
-11.572 
19.591 
12.250 
15.408 
-4.605 
-49.956 
-50.893 
-15.884 
31.089 
14.047 
22.308 
-3.394 
-47.558 
-22.441 
-5.541 
30.312 
53.033 
5.900 
-9.932 
-28.439 
-42.012 
-7.476 
38.989 
43.743 
31.182 
-1.941 
-53.232 
-31.070 
-9.904 
37.133 
52.679 
8.470 
-14.281 
-27.283 
-50.532 
-2.766 
32.368 
22.986 
11.255 
-4.049 
-36.025 
-17.594 
-2.736 
37.284 
7.966 
10.566 
-10.119 
-41.581 
-41.167 
-5.034 
15.638 
40.075 
14.966 
-10.190 
-46.867 
-21.588 
-3.749 
13.732 
22.915 
18.532 
-13.743 
-55.559 
-12.800 
-4.234 
11.740 
34.974 
14.380 
-10.737 
-55.911 
-25.383 
-5.524 
32.036 
13.244 
4.992 
-5.024 
-39.275 
-25.402 
-1.664 
11.127 
23.843 
14.116 
-8.203 
-45.980 
-17.416 
-1.770 
19.201 
44.631 
13.512 
-11.375 
-49.998 
-23.060 
-2.517 
29.123 
41.683 
17.361 
-15.909 
-59.211 
-38.660 
-1.753 
10.867 
23.635 
15.307 
-10.729 
-20.688 
-21.345 
-1.136 
34.422 
38.253 
16.863 
-26.564 
-45.826 
-25.844 
-0.487 
32.408 
51.705 
15.028 
-15.149 
-28.893 
-50.732 
0.347 
22.104 
20.585 
21.603 
-23.314 
-29.700 
-13.919 
0.375 
30.432 
28.443 
2.181 
-17.047 
-36.834 
-44.148 
0.972 
33.441 
48.604 
11.827 
-25.575 
-36.946 
-12.978 
1.444 
39.739 
30.898 
7.900 
-28.331 
-32.801 
-42.525 
2.871 
21.769 
32.431 
11.056 
-19.780 
-21.885 
-35.410 
1.640 
13.293 
12.950 
19.275 
-19.966 
-27.262 
-33.547 
2.137 
9.487 
15.560 
8.974 
-10.382 
-50.456 
-30.479 
7.003 
44.956 
40.525 
7.953 
-17.652 
-40.546 
-34.060 
5.010 
48.835 
34.936 
10.252 
-28.358 
-55.233 
-34.854 
2.588 
35.825 
61.050 
14.342 
-23.799 
-45.276 
-4.929 
4.275 
48.514 
33.768 
6.677 
-19.841 
-37.794 
-14.918 
10.136 
31.062 
27.660 
7.973 
-33.066 
-57.833 
-16.853 
6.758 
57.113 
20.992 
6.831 
-20.059 
-44.599 
-10.347 
10.777 
41.988 
30.382 
5.346 
-10.826 
-48.160 
-7.758 
5.385 
36.427 
17.141 
5.262 
-28.176 
-40.626 
-13.867 
15.443 
40.002 
40.161 
6.231 
-29.930 
-43.087 
-22.325 
7.465 
26.666 
41.626 
3.374 
-27.326 
-54.799 
-12.007 
11.178 
25.844 
48.262 
6.109 
-40.252 
-37.984 
-22.954 
12.605 
13.218 
46.229 
6.874 
-26.806 
-40.401 
-21.015 
15.191 
8.558 
38.507 
4.716 
-25.980 
-20.814 
-28.316 
2.913 
26.666 
19.354 
2.714 
-43.148 
-35.971 
-13.072 
16.820 
36.404 
39.666 
3.892 
-36.664 
-51.743 
-12.852 
20.605 
17.653 
26.129 
0.762 
-12.127 
-52.639 
-15.292 
21.904 
21.198 
14.917 
0.565 
-25.731 
-28.983 
-20.771 
6.478 
32.065 
23.473 
0.186 
-21.374 
-17.705 
-12.573 
6.267 
18.940 
28.718 
-0.579 
-32.661 
-32.585 
-24.460 
16.632 
31.619 
9.085 
-1.209 
-27.671 
-44.905 
-18.191 
7.069 
45.436 
17.875 
-1.747 
-42.206 
-59.513 
-12.338 
15.213 
20.550 
17.334 
-2.109 
-30.718 
-35.218 
-21.956 
5.600 
36.872 
24.398 
-0.995 
-19.226 
-51.398 
-19.358 
14.363 
33.421 
29.411 
-1.534 
-11.948 
-34.494 
-12.160 
16.107 
48.059 
18.767 
-5.530 
-50.599 
-48.107 
-4.413 
2.842 
42.101 
30.394 
-7.551 
-40.105 
-31.394 
-11.110 
26.347 
16.504 
27.636 
-9.000 
-32.461 
-20.208 
-15.505 
34.168 
22.236 
23.992 
-3.354 
-34.971 
-23.040 
-9.148 
21.253 
43.694 
33.405 
-9.435 
-18.881 
-55.985 
-11.811 
27.540 
41.578 
37.109 
-10.661 
-43.589 
-61.732 
-5.135 
14.187 
47.674 
24.140 
-8.251 
-43.323 
-39.614 
-10.128 
19.879 
65.203 
38.416 
-5.564 
-49.194 
-41.838 
-8.929 
14.831 
53.745 
2.774 
-6.395 
-41.417 
-19.592 
-7.802 
20.745 
65.152 
29.710 
-11.756 
-50.291 
-34.806 
-7.604 
9.268 
35.101 
26.317 
-1.261 
-13.183 
-43.497 
-6.593 
30.072 
22.934 
38.297 
-12.666 
-17.946 
-36.900 
-4.409 
13.587 
35.722 
20.679 
-14.152 
-35.536 
-22.499 
-6.410 
20.885 
30.681 
30.210 
-21.057 
-8.028 
-31.298 
-5.668 
44.803 
39.841 
31.573 
-15.343 
-40.046 
-31.545 
-4.255 
27.867 
33.729 
17.718 
-17.621 
-39.583 
-28.529 
-1.554 
5.041 
40.344 
15.610 
-10.750 
-42.193 
-29.055 
-2.037 
7.005 
43.390 
7.851 
-9.206 
-56.904 
-31.567 
-1.300 
24.848 
57.278 
22.934 
-17.991 
-28.706 
-47.314 
-0.474 
13.866 
25.263 
12.046 
-17.438 
-42.416 
-36.610 
-0.209 
24.449 
26.904 
23.470 
-17.595 
-16.343 
-27.552 
0.355 
33.893 
35.106 
12.927 
-16.716 
-45.188 
-24.706 
0.637 
27.421 
17.347 
15.361 
-24.081 
-24.201 
-28.354 
0.921 
14.346 
24.815 
14.186 
-18.869 
-34.869 
-36.349 
2.785 
5.364 
40.735 
15.109 
-29.397 
-17.959 
-33.428 
3.653 
14.098 
44.583 
7.269 
-22.809 
-48.173 
-14.269 
4.521 
34.517 
32.837 
10.670 
-12.327 
-19.458 
-14.274 
4.361 
37.033 
21.894 
18.586 
-15.412 
-32.673 
-31.733 
1.520 
43.293 
21.749 
10.832 
-13.389 
-32.361 
-31.393 
4.173 
43.416 
35.828 
14.988 
-19.522 
-33.824 
-15.875 
3.902 
40.686 
40.823 
8.355 
-10.654 
-62.803 
-9.068 
7.548 
9.285 
31.706 
5.790 
-23.065 
-23.137 
-20.928 
6.283 
17.705 
22.715 
9.683 
-22.690 
-50.681 
-29.607 
5.192 
42.106 
35.995 
3.141 
-17.508 
-27.071 
-21.565 
10.396 
39.518 
53.160 
2.521 
-12.306 
-33.851 
-18.310 
9.170 
55.591 
54.879 
7.195 
-36.213 
-44.898 
-29.501 
5.908 
47.071 
25.961 
5.505 
-25.095 
-38.785 
-5.714 
10.804 
33.738 
34.040 
6.105 
-34.165 
-27.687 
-4.587 
7.094 
34.970 
38.273 
1.534 
-7.008 
-33.689 
-15.989 
9.474 
13.590 
35.744 
6.977 
-29.794 
-35.397 
-20.216 
14.510 
25.556 
44.012 
0.876 
-18.640 
-48.423 
-16.202 
16.119 
32.871 
34.337 
1.960 
-13.942 
-28.513 
-11.156 
11.869 
37.511 
25.449 
2.859 
-18.170 
-40.408 
-17.630 
6.208 
39.076 
38.973 
0.845 
-29.312 
-21.318 
-28.119 
10.712 
3.562 
21.671 
0.101 
-24.227 
-62.179 
-21.766 
9.465 
23.070 
21.374 
-0.157 
-18.139 
-34.407 
-27.919 
26.205 
10.233 
53.478 
-0.821 
-26.606 
-29.059 
-25.722 
18.008 
35.524 
20.219 
-0.375 
-33.559 
-39.985 
-13.345 
21.152 
26.142 
30.670 
-2.142 
-11.300 
-49.767 
-7.901 
30.730 
25.869 
24.900 
-2.494 
-27.631 
-26.248 
-5.092 
10.696 
25.939 
44.030 
-2.715 
-3.229 
-39.716 
-18.374 
9.917 
53.673 
29.723 
-2.721 
-46.957 
-15.133 
-15.860 
33.025 
56.630 
19.139 
-2.587 
-42.594 
-48.657 
-13.155 
5.611 
31.090 
42.780 
-5.758 
-51.351 
-23.963 
-11.731 
22.218 
52.178 
35.924 
-4.531 
-39.746 
-39.720 
-6.433 
18.059 
12.962 
24.991 
-9.035 
-29.453 
-9.471 
-6.350 
20.826 
44.422 
11.189 
-8.851 
-28.778 
-25.743 
-8.021 
17.231 
61.968 
23.079 
-12.269 
-36.708 
-42.076 
-6.664 
29.107 
35.516 
19.448 
-7.955 
-49.276 
-12.469 
-10.127 
29.310 
21.924 
30.624 
-10.507 
-32.445 
-16.827 
-12.193 
22.102 
46.942 
18.150 
-9.124 
-35.974 
-27.733 
-5.248 
23.029 
41.552 
23.988 
-13.322 
-30.296 
-22.469 
-9.070 
25.893 
54.360 
16.061 
-14.948 
-19.205 
-37.431 
-7.887 
39.101 
39.319 
4.717 
-5.175 
-25.024 
-6.077 
-8.098 
18.921 
25.020 
26.645 
-8.790 
-18.782 
-23.616 
-1.217 
29.397 
40.958 
9.727 
-8.617 
-29.063 
-6.852 
-3.890 
20.369 
34.487 
10.356 
-11.568 
-51.726 
-26.949 
-4.036 
41.679 
57.030 
23.358 
-10.088 
-43.437 
-46.567 
-1.787 
0.815 
9.975 
6.974 
-11.484 
-36.076 
-24.857 
-1.172 
30.029 
4.671 
31.060 
-12.096 
-12.017 
-26.830 
-1.193 
19.234 
41.781 
9.895 
-22.919 
-41.270 
-34.369 
-0.521 
20.070 
39.879 
12.181 
-20.963 
-27.126 
-18.606 
0.285 
30.235 
61.264 
27.307 
-10.578 
-20.921 
-35.892 
1.192 
32.931 
22.932 
23.240 
-30.290 
-65.287 
-41.303 
1.555 
34.227 
51.061 
9.433 
-15.769 
-24.935 
-22.858 
1.799 
26.740 
37.441 
4.656 
-21.235 
-27.480 
-18.833 
2.685 
17.266 
30.080 
14.449 
-22.234 
-6.631 
-27.283 
2.648 
23.173 
11.610 
10.268 
-18.919 
-2.737 
-13.159 
5.077 
27.687 
35.786 
11.139 
-12.655 
-39.049 
-18.400 
4.714 
25.529 
20.832 
16.327 
-25.732 
-61.926 
-22.222 
7.550 
31.688 
37.311 
10.476 
-23.529 
-55.222 
-17.498 
1.762 
22.921 
9.651 
1.983 
-22.014 
-42.411 
-26.318 
3.346 
56.012 
37.422 
7.676 
-26.400 
-45.298 
-32.008 
9.685 
27.501 
53.051 
8.089 
-37.746 
-45.671 
-23.454 
7.582 
33.210 
31.020 
11.753 
-24.234 
-58.549 
-35.518 
14.226 
37.709 
26.919 
11.414 
-32.999 
-59.963 
-39.903 
8.720 
29.180 
46.313 
6.899 
-28.300 
-23.836 
-31.186 
8.849 
30.390 
27.681 
2.054 
-19.328 
-20.602 
-7.850 
10.433 
28.954 
28.344 
5.744 
-11.188 
-50.890 
-3.053 
5.780 
18.795 
38.820 
1.246 
-18.571 
-41.557 
-18.779 
13.730 
45.485 
9.187 
2.908 
-45.373 
-63.520 
-25.874 
17.799 
32.573 
25.944 
3.272 
-36.666 
-45.652 
-26.441 
9.152 
30.721 
23.267 
0.700 
-20.853 
-27.143 
-17.086 
9.855 
57.928 
3.575 
2.897 
-33.906 
-32.715 
-12.235 
14.134 
54.786 
18.347 
1.126 
-27.163 
-35.432 
-9.668 
4.176 
45.027 
27.293 
0.135 
-22.382 
-29.354 
-22.699 
18.009 
21.623 
22.399 
0.239 
-42.939 
-22.609 
-29.617 
13.154 
48.558 
51.415 
-0.352 
-17.677 
-34.351 
-23.572 
14.605 
32.647 
48.212 
-1.005 
-15.921 
-32.471 
-19.495 
17.598 
32.764 
24.709 
-2.920 
-22.475 
-14.045 
-11.312 
18.531 
61.408 
18.455 
-1.017 
-42.050 
-35.253 
-5.622 
17.021 
6.110 
34.472 
-2.598 
-32.792 
-40.528 
-14.259 
13.552 
24.194 
30.022 
-2.503 
-19.404 
-49.468 
-9.202 
22.752 
50.170 
2.040 
-3.512 
-11.147 
-18.134 
-15.315 
22.437 
16.115 
39.742 
-3.850 
-37.269 
-28.079 
-13.770 
22.657 
48.927 
28.225 
-3.683 
-3.032 
-49.546 
-6.544 
14.343 
6.173 
5.291 
-6.044 
-43.962 
-13.479 
-7.671 
11.593 
31.542 
34.713 
-2.281 
-10.337 
-51.796 
-6.659 
25.506 
57.660 
34.481 
-6.590 
-51.152 
-53.357 
-6.940 
18.482 
35.155 
22.201 
-11.990 
-45.500 
-54.218 
-14.303 
22.466 
24.072 
19.275 
-14.907 
-12.871 
-35.820 
-6.301 
29.565 
55.179 
23.183 
-12.557 
-14.605 
-34.869 
-8.897 
17.408 
24.770 
9.711 
-9.829 
-28.193 
-15.985 
-3.122 
35.305 
22.965 
25.199 
-9.147 
-38.666 
-23.628 
-2.728 
13.527 
33.642 
34.260 
-17.726 
-22.925 
-34.502 
-5.067 
14.278 
9.013 
35.332 
-16.253 
-61.004 
-27.430 
-4.117 
19.310 
36.027 
31.518 
-12.735 
-42.472 
-4.178 
-6.332 
29.093 
40.568 
19.841 
-8.286 
-11.462 
-39.380 
-3.590 
25.956 
38.703 
18.181 
-21.490 
-20.066 
-7.926 
-2.302 
20.323 
31.183 
13.249 
-12.425 
-23.606 
-17.457 
-1.876 
26.809 
53.276 
12.146 
-26.054 
-19.578 
-26.747 
-0.802 
22.873 
55.209 
16.839 
-14.927 
-27.296 
-46.873 
-0.708 
17.416 
34.724 
11.817 
-18.081 
-3.732 
-36.985 
-0.296 
20.185 
2.886 
17.205 
-8.312 
-36.606 
-26.797 
0.295 
34.942 
36.872 
19.070 
